<svg id="Group_1685" data-name="Group 1685" xmlns="http://www.w3.org/2000/svg" width="72.748" height="26.758" viewBox="0 0 72.748 26.758">
  <rect id="Rectangle_409" data-name="Rectangle 409" width="72.748" height="26.758" rx="4" fill="#efefef"/>
  <path id="Path_2168" data-name="Path 2168" d="M3.8-4.815a1,1,0,0,0-.463-.319,1.661,1.661,0,0,0-.554-.1,1.45,1.45,0,0,0-.315.036,1.207,1.207,0,0,0-.306.112.667.667,0,0,0-.234.2.513.513,0,0,0-.09.306.507.507,0,0,0,.216.441,2.045,2.045,0,0,0,.545.261q.328.108.707.216a2.911,2.911,0,0,1,.706.306,1.673,1.673,0,0,1,.544.531,1.618,1.618,0,0,1,.216.891,2.048,2.048,0,0,1-.2.927,1.881,1.881,0,0,1-.536.657,2.279,2.279,0,0,1-.783.387,3.44,3.44,0,0,1-.941.126A3.412,3.412,0,0,1,1.161-.027a2.887,2.887,0,0,1-.99-.612l1-1.1a1.458,1.458,0,0,0,.545.446,1.554,1.554,0,0,0,.679.157,1.537,1.537,0,0,0,.347-.04A1.129,1.129,0,0,0,3.056-1.3.679.679,0,0,0,3.28-1.5a.516.516,0,0,0,.086-.3.539.539,0,0,0-.221-.454,2.032,2.032,0,0,0-.553-.284q-.333-.117-.72-.234a3.233,3.233,0,0,1-.72-.315A1.735,1.735,0,0,1,.6-3.609a1.494,1.494,0,0,1-.221-.855,1.914,1.914,0,0,1,.2-.9,1.953,1.953,0,0,1,.54-.648A2.348,2.348,0,0,1,1.9-6.4a3.187,3.187,0,0,1,.909-.13,3.574,3.574,0,0,1,1.044.153,2.408,2.408,0,0,1,.909.513ZM5.634-6.372h1.4V-4H9.765V-6.372h1.4V0h-1.4V-2.754H7.038V0h-1.4Zm8.748,0h1.161L18.315,0H16.731l-.549-1.35H13.707L13.176,0H11.628Zm.54,1.854-.774,1.98H15.7Zm3.852-1.854H21.24a4.351,4.351,0,0,1,.922.095,2.189,2.189,0,0,1,.765.315,1.57,1.57,0,0,1,.522.594,2.012,2.012,0,0,1,.194.931,1.87,1.87,0,0,1-.351,1.147,1.58,1.58,0,0,1-1.026.6L23.886,0H22.2L20.871-2.547h-.693V0h-1.4Zm1.4,2.637h.828q.189,0,.4-.014a1.255,1.255,0,0,0,.382-.081.662.662,0,0,0,.283-.211.644.644,0,0,0,.113-.405.672.672,0,0,0-.1-.387.66.66,0,0,0-.252-.22,1.118,1.118,0,0,0-.351-.1,2.863,2.863,0,0,0-.387-.027h-.918Zm4.3-2.637h4.329v1.3H25.884v1.188h2.763v1.3H25.884v1.3h3.087V0H24.48Z" transform="translate(31.775 16.526)" fill="#bebebe"/>
  <g id="Group_1593" data-name="Group 1593" transform="translate(4.825 3.838)">
    <path id="Path_1864" data-name="Path 1864" d="M18.693,0H1.05A1.053,1.053,0,0,0,0,1.05V18.693a1.053,1.053,0,0,0,1.05,1.05H18.693a1.053,1.053,0,0,0,1.05-1.05V1.05A1.053,1.053,0,0,0,18.693,0ZM5.54,17.695H2.31V7.246H5.566L5.54,17.695ZM3.938,5.828a1.89,1.89,0,1,1,1.89-1.89,1.916,1.916,0,0,1-1.89,1.89ZM17.695,17.695H14.466V12.6c0-1.208-.026-2.757-1.68-2.757-1.68,0-1.943,1.313-1.943,2.678v5.172H7.587V7.246h3.124V8.664h.053a3.41,3.41,0,0,1,3.072-1.68c3.282,0,3.886,2.153,3.886,4.962l-.026,5.75Zm0,0" fill="#bebebe"/>
  </g>
</svg>
