<?xml version="1.0" encoding="utf-8"?>
<!-- Generator: Adobe Illustrator 24.2.3, SVG Export Plug-In . SVG Version: 6.00 Build 0)  -->
<svg version="1.1" id="Layer_1" xmlns="http://www.w3.org/2000/svg" xmlns:xlink="http://www.w3.org/1999/xlink" x="0px" y="0px"
	 viewBox="0 0 142 138" style="enable-background:new 0 0 142 138;" xml:space="preserve">
<style type="text/css">
	.st0{fill:#97D700;}
	.st1{fill:#FFFFFF;}
</style>
<path class="st0" d="M141.9,0H11.8C5.3,0,0,5.3,0,11.8V138"/>
<g>
	<path class="st1" d="M52.4,73.2l-4.1,4.1l-21-5.1l13.1,13.1l-4.1,4.1L16.4,69.5l4.1-4.1l21.1,5.1L28.5,57.4l4.1-4.1L52.4,73.2z"/>
	<path class="st1" d="M59.3,49l-7.9,7.9l5.3,5.3L66,53l3.3,3.3L56,69.6L36.1,49.7l13.3-13.3l3.3,3.3L43.5,49l4.7,4.7l7.9-7.9
		L59.3,49z"/>
	<path class="st1" d="M81.4,32.7L70,15.9l4.1-4.1l15.4,24.2l-4.1,4.1l-16.5-10l10,16.5l-4.1,4.1L50.5,35.3l4.1-4.1l16.8,11.4
		L60.6,25.3l3.5-3.5L81.4,32.7z"/>
</g>
</svg>
