<svg xmlns="http://www.w3.org/2000/svg" width="22.137" height="12.137" viewBox="0 0 22.137 12.137">
  <g id="Group_2145" data-name="Group 2145" transform="translate(355.688 644.502) rotate(180)">
    <rect id="Rectangle_1773" data-name="Rectangle 1773" width="15.489" height="1.674" transform="translate(344.736 632.366) rotate(45)" fill="#b5271e"/>
    <rect id="Rectangle_1788" data-name="Rectangle 1788" width="15.489" height="1.674" transform="translate(333.552 643.318) rotate(-45)" fill="#b5271e"/>
  </g>
</svg>
