<?xml version="1.0" encoding="utf-8"?>
<!-- Generator: Adobe Illustrator 23.0.1, SVG Export Plug-In . SVG Version: 6.00 Build 0)  -->
<svg version="1.1" id="Layer_1" xmlns="http://www.w3.org/2000/svg" xmlns:xlink="http://www.w3.org/1999/xlink" x="0px" y="0px"
	 viewBox="0 0 28 29" style="enable-background:new 0 0 28 29;" xml:space="preserve">
<style type="text/css">
	.st0{filter:url(#Adobe_OpacityMaskFilter);}
	.st1{fill-rule:evenodd;clip-rule:evenodd;fill:#FFFFFF;}
	.st2{mask:url(#mask-2_1_);fill-rule:evenodd;clip-rule:evenodd;fill:#26BF67;}
	.st3{fill-rule:evenodd;clip-rule:evenodd;fill:#26BF67;}
</style>
<title>Group 6</title>
<desc>Created with Sketch.</desc>
<g id="Form">
	<g id="States" transform="translate(-336.000000, -172.000000)">
		<g id="Group-6" transform="translate(336.000000, 172.000000)">
			<g id="Group-3" transform="translate(0.000000, 0.377872)">
				<g id="Clip-2">
				</g>
				<defs>
					<filter id="Adobe_OpacityMaskFilter" filterUnits="userSpaceOnUse" x="0" y="0.1" width="27.9" height="27.9">
						<feColorMatrix  type="matrix" values="1 0 0 0 0  0 1 0 0 0  0 0 1 0 0  0 0 0 1 0"/>
					</filter>
				</defs>
				<mask maskUnits="userSpaceOnUse" x="0" y="0.1" width="27.9" height="27.9" id="mask-2_1_">
					<g class="st0">
						<polygon id="path-1_1_" class="st1" points="0,0.1 27.9,0.1 27.9,28 0,28 						"/>
					</g>
				</mask>
				<path id="Fill-1" class="st2" d="M13.9,25.6c-6.4,0-11.5-5.2-11.5-11.5c0-6.4,5.2-11.5,11.5-11.5s11.5,5.2,11.5,11.5
					C25.5,20.4,20.3,25.6,13.9,25.6 M13.9,0.1C6.3,0.1,0,6.4,0,14.1C0,21.7,6.3,28,13.9,28s13.9-6.3,13.9-13.9
					C27.9,6.4,21.6,0.1,13.9,0.1"/>
			</g>
			<path id="Fill-4" class="st3" d="M21,9.6c-0.5-0.4-1.3-0.3-1.7,0.2l-8.6,8.4l-3.3-3.6c-0.4-0.5-1.2-0.5-1.7-0.1
				c-0.5,0.5-0.5,1.2-0.1,1.7l4.2,4.6c0.2,0.2,0.5,0.4,0.9,0.4c0,0,0,0,0,0c0.3,0,0.7-0.2,0.9-0.5l9.5-9.5C21.6,10.8,21.5,10,21,9.6
				"/>
		</g>
	</g>
</g>
</svg>
