<svg xmlns="http://www.w3.org/2000/svg" width="72.748" height="26.758" viewBox="0 0 72.748 26.758">
  <g id="Group_1686" data-name="Group 1686" transform="translate(0)">
    <rect id="Rectangle_408" data-name="Rectangle 408" width="72.748" height="26.758" rx="4" fill="#efefef"/>
    <path id="Path_2167" data-name="Path 2167" d="M3.8-4.815a1,1,0,0,0-.463-.319,1.661,1.661,0,0,0-.554-.1,1.45,1.45,0,0,0-.315.036,1.207,1.207,0,0,0-.306.112.667.667,0,0,0-.234.2.513.513,0,0,0-.09.306.507.507,0,0,0,.216.441,2.045,2.045,0,0,0,.545.261q.328.108.707.216a2.911,2.911,0,0,1,.706.306,1.673,1.673,0,0,1,.544.531,1.618,1.618,0,0,1,.216.891,2.048,2.048,0,0,1-.2.927,1.881,1.881,0,0,1-.536.657,2.279,2.279,0,0,1-.783.387,3.44,3.44,0,0,1-.941.126A3.412,3.412,0,0,1,1.161-.027a2.887,2.887,0,0,1-.99-.612l1-1.1a1.458,1.458,0,0,0,.545.446,1.554,1.554,0,0,0,.679.157,1.537,1.537,0,0,0,.347-.04A1.129,1.129,0,0,0,3.056-1.3.679.679,0,0,0,3.28-1.5a.516.516,0,0,0,.086-.3.539.539,0,0,0-.221-.454,2.032,2.032,0,0,0-.553-.284q-.333-.117-.72-.234a3.233,3.233,0,0,1-.72-.315A1.735,1.735,0,0,1,.6-3.609a1.494,1.494,0,0,1-.221-.855,1.914,1.914,0,0,1,.2-.9,1.953,1.953,0,0,1,.54-.648A2.348,2.348,0,0,1,1.9-6.4a3.187,3.187,0,0,1,.909-.13,3.574,3.574,0,0,1,1.044.153,2.408,2.408,0,0,1,.909.513ZM5.634-6.372h1.4V-4H9.765V-6.372h1.4V0h-1.4V-2.754H7.038V0h-1.4Zm8.748,0h1.161L18.315,0H16.731l-.549-1.35H13.707L13.176,0H11.628Zm.54,1.854-.774,1.98H15.7Zm3.852-1.854H21.24a4.351,4.351,0,0,1,.922.095,2.189,2.189,0,0,1,.765.315,1.57,1.57,0,0,1,.522.594,2.012,2.012,0,0,1,.194.931,1.87,1.87,0,0,1-.351,1.147,1.58,1.58,0,0,1-1.026.6L23.886,0H22.2L20.871-2.547h-.693V0h-1.4Zm1.4,2.637h.828q.189,0,.4-.014a1.255,1.255,0,0,0,.382-.081.662.662,0,0,0,.283-.211.644.644,0,0,0,.113-.405.672.672,0,0,0-.1-.387.66.66,0,0,0-.252-.22,1.118,1.118,0,0,0-.351-.1,2.863,2.863,0,0,0-.387-.027h-.918Zm4.3-2.637h4.329v1.3H25.884v1.188h2.763v1.3H25.884v1.3h3.087V0H24.48Z" transform="translate(31.775 16.526)" fill="#bebebe"/>
    <g id="Group_1592" data-name="Group 1592" transform="translate(4.347 3.838)">
      <path id="Path_1863" data-name="Path 1863" d="M18.693,0H1.05A1.053,1.053,0,0,0,0,1.05V18.693a1.053,1.053,0,0,0,1.05,1.05H18.693a1.053,1.053,0,0,0,1.05-1.05V1.05A1.053,1.053,0,0,0,18.693,0Zm-.656,4.883A6.807,6.807,0,0,1,16.382,6.59v.394a9.415,9.415,0,0,1-9.5,9.556,9.7,9.7,0,0,1-5.146-1.5c-.026-.026-.053-.053-.026-.105,0-.026.053-.053.079-.053.263.026.525.053.788.053a6.744,6.744,0,0,0,3.912-1.26,3.377,3.377,0,0,1-2.967-2.363.093.093,0,0,1,.105-.105,3.263,3.263,0,0,0,1.129.026A3.493,3.493,0,0,1,2.337,7.955V7.9c0-.026.026-.053.053-.079a.049.049,0,0,1,.079,0,3.144,3.144,0,0,0,1.181.394A3.334,3.334,0,0,1,2.363,5.566a3.213,3.213,0,0,1,.473-1.706l.053-.053a.1.1,0,0,1,.079.026A9.427,9.427,0,0,0,9.661,7.272a2.882,2.882,0,0,1-.053-.683,3.423,3.423,0,0,1,3.413-3.413,3.316,3.316,0,0,1,2.442,1.05,7.2,7.2,0,0,0,2.048-.788c.026-.026.053-.026.105,0a.1.1,0,0,1,.026.079A3.244,3.244,0,0,1,16.435,5.2a6.039,6.039,0,0,0,1.523-.473c.026-.026.079,0,.105.026,0,.079,0,.105-.026.131Zm0,0" fill="#bebebe"/>
    </g>
  </g>
</svg>
