<svg xmlns="http://www.w3.org/2000/svg" width="125.705" height="44.111" viewBox="0 0 125.705 44.111">
  <g id="Group_12" data-name="Group 12" transform="translate(0)">
    <path id="Path_1" data-name="Path 1" d="M53.53,42.127l-4.21.027-5.025-2.2a.6.6,0,0,0-.217-.027L39.6,41.095c-.027-.163-.027-.353-.054-.516,4.183-1.793,4.21-2.2,4.21-2.417,0-.244.244-2.037.407-3.232,2.933-1.63,4.129-2.309,4.59-2.635h0c.326-.244.353-.353.3-.489-.054-.163-.217-.163-.38-.136-.054,0-3.287,1.82-4.971,2.771a.312.312,0,0,0-.163.244c-.054.3-.38,2.716-.435,3.368a31.361,31.361,0,0,1-3.64,1.711c-.027-.217-.054-.462-.081-.652L40,38.487a.444.444,0,0,0,0-.652l-.842-.815c-.054-.706-.353-5.84-.38-5.867a.3.3,0,0,0-.435,0c-.081.081-.3,5.079-.326,5.867l-.842.842a.444.444,0,0,0,0,.652l.6.6c-.027.244-.054.489-.081.761a31.131,31.131,0,0,1-3.857-1.766c-.054-.652-.38-3.069-.435-3.368a.4.4,0,0,0-.163-.244c-1.684-.951-4.916-2.743-4.971-2.771-.163-.027-.326-.027-.38.136-.054.136-.027.244.3.489h0c.462.326,1.657,1,4.59,2.635.163,1.2.407,2.988.407,3.232,0,.217,0,.625,4.4,2.5,0,.163-.027.326-.027.489l-4.672-1.222a.205.205,0,0,0-.217.027l-5.025,2.173-4.21-.027c-.19,0-.435.081-.435.272s.217.272.407.272l4.319.163h0a.245.245,0,0,0,.136-.027l5-2.173L37.4,42.045c-.761.109-3.694.6-5.405.9a38.8,38.8,0,0,0-5.976,1.331,1.224,1.224,0,0,0-.706,1.086,1.255,1.255,0,0,0,.516,1.141,5.783,5.783,0,0,0,2.58.706,12.248,12.248,0,0,0,5.134-1.114A18.907,18.907,0,0,0,37.5,43c0,.3-.027.6-.027.924-1.2,1.141-3.558,3.368-3.558,3.368a.349.349,0,0,0-.109.326L34.9,52.937,32.235,58.8c-.081.163-.109.6.054.679a.245.245,0,0,0,.136.027c.136,0,.38-.353.435-.489L35.494,53.1a.462.462,0,0,0,.027-.19l-1.059-5.242c.462-.38,1.9-1.575,2.961-2.472v.3c0,5.079-.3,9.235,1.141,9.181,1.494-.054,1.2-4.156,1.2-9.235V45.3c1.059.869,2.39,1.983,2.825,2.363L41.524,52.91a.239.239,0,0,0,.027.19l2.635,5.921c.054.136.3.489.435.489a.245.245,0,0,0,.136-.027c.163-.081.136-.516.054-.679L42.2,52.91l1.086-5.324a.373.373,0,0,0-.109-.326s-2.173-2.064-3.422-3.232c0-.353-.027-.706-.027-1.059a18.231,18.231,0,0,0,3.966,3.1,12.248,12.248,0,0,0,5.134,1.114,6.3,6.3,0,0,0,2.58-.706,1.321,1.321,0,0,0,.516-1.141,1.224,1.224,0,0,0-.706-1.086,40.406,40.406,0,0,0-5.976-1.331c-1.874-.326-5.188-.869-5.541-.9h0l4.482-1.412,5,2.173a.245.245,0,0,0,.136.027h0l4.319-.163c.19,0,.407-.109.407-.272A.6.6,0,0,0,53.53,42.127Z" transform="translate(-16.753 -22.625)" fill="#fff"/>
    <path id="Path_2" data-name="Path 2" d="M22.055,44.111A22.055,22.055,0,1,1,44.111,22.055,22.071,22.071,0,0,1,22.055,44.111Zm0-39.792A17.737,17.737,0,1,0,39.792,22.055,17.759,17.759,0,0,0,22.055,4.319Z" fill="#b5271e"/>
    <rect id="Rectangle_1" data-name="Rectangle 1" width="5.134" height="28.629" transform="translate(51.2 7.741)" fill="#fff"/>
    <path id="Path_3" data-name="Path 3" d="M238.048,28.4l-6.872,19.176L224.25,28.427H218.6L229.275,57.11h3.558L243.752,28.4Z" transform="translate(-159.224 -20.686)" fill="#fff"/>
    <g id="Group_1" data-name="Group 1" transform="translate(83.957 7.198)">
      <path id="Path_4" data-name="Path 4" d="M324.338,50.891a9.676,9.676,0,1,1,0-19.339,10.269,10.269,0,0,1,3.776.733c.489-1.141,1.331-3.178,1.956-4.7a15.476,15.476,0,0,0-5.731-1.086A14.989,14.989,0,0,0,309.1,41.222a14.989,14.989,0,0,0,15.238,14.722,15.735,15.735,0,0,0,5.677-1.059l-1.983-4.672A10.487,10.487,0,0,1,324.338,50.891Z" transform="translate(-309.1 -26.5)" fill="#fff"/>
    </g>
    <g id="Group_2" data-name="Group 2" transform="translate(104.736 7.198)">
      <path id="Path_5" data-name="Path 5" d="M400.838,50.891a9.676,9.676,0,1,1,0-19.339,10.269,10.269,0,0,1,3.776.733c.489-1.141,1.331-3.178,1.956-4.7a15.476,15.476,0,0,0-5.731-1.086A14.989,14.989,0,0,0,385.6,41.222a14.989,14.989,0,0,0,15.238,14.722,15.735,15.735,0,0,0,5.677-1.059l-1.983-4.672A10.375,10.375,0,0,1,400.838,50.891Z" transform="translate(-385.6 -26.5)" fill="#fff"/>
    </g>
  </g>
</svg>
